…
    library(dplyr)

    ## Warning: package 'dplyr' was built under R version 3.3.2

    ag_summary <- group_by(cs_data, BROAD_HABITAT_NAME) %>%
      summarise(mean_ag_holding = mean(ag_holding, na.rm=TRUE),
                total_ag_holding = sum(ag_holding, na.rm=TRUE))
    ag_summary

    ## # A tibble: 24 × 3
    ##                     BROAD_HABITAT_NAME mean_ag_holding total_ag_holding
    ##                                 <fctr>           <dbl>            <dbl>
    ## 1                     (ph) Blanket Bog        253.1675        12405.205
    ## 2               (ph) Coastal Saltmarsh        236.8140          947.256
    ## 3  (ph) Purple Moor Grass Rush Pasture        363.5080          363.508
    ## 4                       Acid Grassland        297.2661        41319.993
    ## 5              Arable and Horticulture        258.9813        95564.114
    ## 6                                  Bog        296.2053        15698.879
    ## 7         Boundary and Linear Features        269.3106        50091.767
    ## 8                              Bracken        321.8582        15449.195
    ## 9   Broadleaved Mixed and Yew Woodland        288.7763        62953.228
    ## 10                Calcareous Grassland        302.7874         2119.512
    ## # ... with 14 more rows
…
